Jack Katz - Directed Study Data Cleaning and Regression Analysis
…
mutate(Cities_1980, Hispanic_Population = 
         if_else(COUNTYFIP == 37, 27.6, 
                 if_else(COUNTYFIP == 86, 35.7, 
                         if_else(COUNTYFIP == 73, 14.8,
                                 if_else(COUNTYFIP == 81, 13.9,
                                         if_else(COUNTYFIP == 215, 81.3, 
                                                 
                                                 if_else(COUNTYFIP == 59, 14.8,
                                                         if_else(COUNTYFIP == 85, 17.5,
                                                                 if_else(COUNTYFIP == 19, 29.3,
                                                                         if_else(COUNTYFIP == 57, 17.6,
                                                                                 if_else(COUNTYFIP == 17, 26.1, 0)))))))))))

# A tibble: 910 × 54
    YEAR SAMPLE           SERIAL CBSERIAL  HHWT  CLUSTER CPI99 STATEICP STATEFIP
   <int> <int+lbl>         <dbl>    <dbl> <dbl>    <dbl> <dbl> <int+lb> <int+lb>
 1  1980 198002 [1980 1%]   2475       NA   100  1.98e12  2.30 61 [Ari… 4 [Ariz…
 2  1980 198002 [1980 1%]   2475       NA   100  1.98e12  2.30 61 [Ari… 4 [Ariz…
 3  1980 198002 [1980 1%]   2718       NA   100  1.98e12  2.30 61 [Ari… 4 [Ariz…
 4  1980 198002 [1980 1%]   2869       NA   100  1.98e12  2.30 61 [Ari… 4 [Ariz…
 5  1980 198002 [1980 1%]   3197       NA   100  1.98e12  2.30 61 [Ari… 4 [Ariz…
 6  1980 198002 [1980 1%]   3206       NA   100  1.98e12  2.30 61 [Ari… 4 [Ariz…
 7  1980 198002 [1980 1%]   3519       NA   100  1.98e12  2.30 61 [Ari… 4 [Ariz…
 8  1980 198002 [1980 1%]   3775       NA   100  1.98e12  2.30 61 [Ari… 4 [Ariz…
 9  1980 198002 [1980 1%]   3811       NA   100  1.98e12  2.30 61 [Ari… 4 [Ariz…
10  1980 198002 [1980 1%]   3813       NA   100  1.98e12  2.30 61 [Ari… 4 [Ariz…
# ℹ 900 more rows
# ℹ 45 more variables: COUNTYFIP <dbl+lbl>, CITY <int+lbl>, STRATA <dbl>,
#   GQ <int+lbl>, PERNUM <dbl>, PERWT <dbl>, ELDCH <int+lbl>, YNGCH <int+lbl>,
#   SEX <int+lbl>, AGE <int+lbl>, MARST <int+lbl>, RACE <int+lbl>,
#   RACED <int+lbl>, HISPAN <int+lbl>, HISPAND <int+lbl>, BPL <int+lbl>,
#   BPLD <int+lbl>, CITIZEN <int+lbl>, YRIMMIG <int+lbl>, LANGUAGE <int+lbl>,
#   LANGUAGED <int+lbl>, SPEAKENG <int+lbl>, EDUC <int+lbl>, EDUCD <int+lbl>, …
…
#Creating population variable 

Cities_2010 %>% 
  filter(COUNTYFIP != 0 ) %>% 
  group_by(STATEFIP, COUNTYFIP) %>% 
  summarise(n=n()) %>% 
  arrange(-n)

`summarise()` has grouped output by 'STATEFIP'. You can override using the
`.groups` argument.

# A tibble: 23 × 3
# Groups:   STATEFIP [16]
   STATEFIP        COUNTYFIP     n
   <int+lbl>       <dbl+lbl> <int>
 1  6 [California]  37        1812
 2 48 [Texas]      201         483
 3  6 [California]  59         392
 4 17 [Illinois]    31         311
 5  4 [Arizona]     13         270
 6  6 [California]  13          91
 7 36 [New York]    59          52
 8 24 [Maryland]    31          46
 9 34 [New Jersey]  13          40
10 32 [Nevada]      31          39
# ℹ 13 more rows
…
#mutate(COUNTY_POPULATION = ifelse(STATEFIP %in% c(6,12, 36, 48, 36, 34), 1, 0))

view(head(Cities_2019
))

# Creating Population Variable 
Cities_2019 %>% 
  group_by(STATEFIP, COUNTYFIP) %>% 
  summarise(n=n()) %>% 
  arrange(-n)

`summarise()` has grouped output by 'STATEFIP'. You can override using the
`.groups` argument.

# A tibble: 26 × 3
# Groups:   STATEFIP [16]
   STATEFIP        COUNTYFIP     n
   <int+lbl>       <dbl+lbl> <int>
 1  6 [California]  37        1146
 2 48 [Texas]      201         378
 3 48 [Texas]      113         305
 4 17 [Illinois]    31         232
 5  4 [Arizona]     13         230
 6  6 [California]  13          69
 7 24 [Maryland]    31          63
 8 34 [New Jersey]  31          58
 9 32 [Nevada]      31          41
10 34 [New Jersey]  13          25
# ℹ 16 more rows
…
