Jack Katz - Restaurant Inspection Data
…
Grades <- restaurant %>% 
  filter(`CUISINE DESCRIPTION` %in% c(Q1e$`CUISINE DESCRIPTION`))
Grades

# A tibble: 11,033 × 12
      CAMIS DBA      BORO  STREET `CUISINE DESCRIPTION` `INSPECTION DATE` ACTION
      <dbl> <chr>    <chr> <chr>  <chr>                 <chr>             <chr> 
 1 40356018 riviera… Broo… STILL… American              02/01/2022        Viola…
 2 40357217 wild as… Bronx SOUTH… American              07/28/2021        Viola…
 3 40359480 1 east … Manh… EAST … American              05/03/2022        Viola…
 4 40362264 p & s d… Manh… COLUM… American              02/07/2023        Viola…
 5 40362274 angelik… Manh… WEST … American              02/14/2022        Viola…
 6 40362432 ho mei … Quee… 37 AV… Chinese               10/25/2022        Viola…
 7 40363298 cafe me… Manh… 8 AVE… American              09/02/2022        Viola…
 8 40363920 new gol… Broo… RUTLA… Chinese               02/16/2022        Viola…
 9 40364305 philade… Broo… 4 AVE… Pizza                 01/23/2023        Viola…
10 40364347 metropo… Manh… EAST … American              04/12/2022        Viola…
# ℹ 11,023 more rows
# ℹ 5 more variables: `VIOLATION CODE` <chr>, `VIOLATION DESCRIPTION` <chr>,
#   `CRITICAL FLAG` <chr>, SCORE <dbl>, GRADE <chr>
…
From this ggplot we can see that donuts have the highest proportion of A grades for health.

Most popular restaurant type

Q1f <- restaurant %>% 
  group_by(`DBA`) %>% 
  summarise(count = n()) %>%   
  arrange(desc(count))

Q1f

# A tibble: 13,914 × 2
   DBA                     count
   <chr>                   <int>
 1 dunkin                    402
 2 starbucks                 286
 3 mcdonald's                170
 4 subway                    166
 5 dunkin', baskin robbins   107
 6 popeyes                    98
 7 chipotle mexican grill     91
 8 burger king                63
 9 domino's                   60
10 kennedy fried chicken      52
# ℹ 13,904 more rows
…
